[gd_scene load_steps=7 format=2]

[ext_resource path="res://Scripts/Scenes/OverworldMap/pin_sprite.gd" type="Script" id=1]
[ext_resource path="res://Scenes/OverworldMap/pins.sprites/location-icons.tres" type="Texture" id=2]
[ext_resource path="res://Scenes/OverworldMap/pins.sprites/roach-icons.tres" type="Texture" id=3]
[ext_resource path="res://Scenes/OverworldMap/pins.sprites/home-icons.tres" type="Texture" id=4]


[sub_resource type="RectangleShape2D" id=1]

custom_solver_bias = 0.0
extents = Vector2( 23.2641, 32.1285 )

[sub_resource type="SpriteFrames" id=2]

animations = [ {
"frames": [ ExtResource( 2 ) ],
"loop": true,
"name": "location",
"speed": 5.0
}, {
"frames": [ ExtResource( 3 ) ],
"loop": true,
"name": "hive",
"speed": 5.0
}, {
"frames": [ ExtResource( 4 ) ],
"loop": true,
"name": "home",
"speed": 5.0
} ]

[node name="pin" type="Area2D"]

input_pickable = true
gravity_vec = Vector2( 0, 1 )
gravity = 98.0
linear_damp = 0.1
angular_damp = 1.0
audio_bus_override = false
audio_bus_name = "Master"
script = ExtResource( 1 )
_sections_unfolded = [ "Offset", "Pickable", "Transform" ]
nearest_path_point = 0

[node name="CollisionShape2D" type="CollisionShape2D" parent="." index="0"]

position = Vector2( -0.112732, -33.0427 )
shape = SubResource( 1 )

[node name="PinSprite" type="AnimatedSprite" parent="." index="1"]

position = Vector2( 0.601501, -33.3338 )
scale = Vector2( 0.55, 0.55 )
frames = SubResource( 2 )
animation = "location"
_sections_unfolded = [ "Transform" ]


