[gd_resource type="AtlasTexture" load_steps=2 format=2]

[sub_resource type="StreamTexture" id=1]

flags = 7
load_path = "res://.import/effects.png-8397193a36ddd298408d5ac126ac84e3.stex"

[resource]

flags = 7
atlas = SubResource( 1 )
region = Rect2( 261, 1, 128, 128 )
margin = Rect2( 0, 0, 0, 0 )
filter_clip = false

