[gd_resource type="AtlasTexture" load_steps=2 format=2]

[sub_resource type="StreamTexture" id=1]

flags = 7
load_path = "res://.import/battle_ui.png-f55902915f562a1ced0177f7561aea66.stex"

[resource]

flags = 7
atlas = SubResource( 1 )
region = Rect2( 131, 224, 128, 200 )
margin = Rect2( 0, 0, 0, 0 )
filter_clip = false

