[gd_resource type="AtlasTexture" load_steps=2 format=2]

[sub_resource type="StreamTexture" id=1]

flags = 7
load_path = "res://.import/editor_markers.png-ec1e51cca6b8d7370796dc3fd0b0536d.stex"

[resource]

flags = 7
atlas = SubResource( 1 )
region = Rect2( 131, 1, 63, 63 )
margin = Rect2( 1, 1, 1, 1 )
filter_clip = false

