[gd_scene load_steps=8 format=2]

[ext_resource path="res://Scripts/Scenes/main_menu_scene.gd" type="Script" id=1]
[ext_resource path="res://Assets/textures/ui/main_menu/background.jpg" type="Texture" id=2]
[ext_resource path="res://Assets/textures/ui/main_menu/game_logo.png" type="Texture" id=3]
[ext_resource path="res://Assets/textures/ui/main_menu/menu_ui.png" type="Texture" id=4]

[sub_resource type="AtlasTexture" id=1]

flags = 4
atlas = ExtResource( 4 )
region = Rect2( 0, 0, 214, 74 )
margin = Rect2( 0, 0, 0, 0 )
filter_clip = false

[sub_resource type="AtlasTexture" id=2]

flags = 4
atlas = ExtResource( 4 )
region = Rect2( 0, 0, 214, 74 )
margin = Rect2( 0, 0, 0, 0 )
filter_clip = false

[sub_resource type="AtlasTexture" id=3]

flags = 4
atlas = ExtResource( 4 )
region = Rect2( 0, 74, 214, 74 )
margin = Rect2( 0, 0, 0, 0 )
filter_clip = false

[node name="MainMenu" type="Node2D"]

script = ExtResource( 1 )
__meta__ = {
"_edit_vertical_guides_": [ 173.088, 595.699 ]
}

[node name="background" type="Sprite" parent="." index="0"]

position = Vector2( 0, 0.487183 )
scale = Vector2( 1, 1 )
texture = ExtResource( 2 )
centered = false
_sections_unfolded = [ "Animation", "Offset", "Region", "Transform" ]

[node name="game_logo" type="Sprite" parent="." index="1"]

position = Vector2( 375, 610 )
texture = ExtResource( 3 )
_sections_unfolded = [ "Transform" ]

[node name="play_btn" type="TextureButton" parent="." index="2"]

anchor_left = 0.0
anchor_top = 0.0
anchor_right = 0.0
anchor_bottom = 0.0
margin_left = 268.0
margin_top = 877.0
margin_right = 482.0
margin_bottom = 951.0
rect_pivot_offset = Vector2( 0, 0 )
rect_clip_content = false
focus_mode = 2
mouse_filter = 0
mouse_default_cursor_shape = 0
size_flags_horizontal = 1
size_flags_vertical = 1
toggle_mode = false
enabled_focus_mode = 2
shortcut = null
group = null
texture_normal = SubResource( 1 )
texture_pressed = SubResource( 2 )
texture_hover = SubResource( 3 )
_sections_unfolded = [ "Rect", "Textures" ]


