[gd_scene load_steps=4 format=2]

[ext_resource path="res://Scripts/Scenes/splash_scene.gd" type="Script" id=1]
[ext_resource path="res://Assets/textures/ui/splash/company_logo.png" type="Texture" id=2]

[sub_resource type="Animation" id=1]

resource_name = "animate_in_logo"
length = 5.0
loop = false
step = 0.1
tracks/0/type = "value"
tracks/0/path = NodePath(".:modulate")
tracks/0/interp = 1
tracks/0/loop_wrap = true
tracks/0/imported = false
tracks/0/enabled = true
tracks/0/keys = {
"times": PoolRealArray( 0.9, 1.4, 3.4, 3.9 ),
"transitions": PoolRealArray( 1, 1, 1, 1 ),
"update": 0,
"values": [ Color( 0, 0, 0, 1 ), Color( 1, 1, 1, 1 ), Color( 1, 1, 1, 1 ), Color( 0, 0, 0, 1 ) ]
}
tracks/1/type = "value"
tracks/1/path = NodePath(".:scale")
tracks/1/interp = 1
tracks/1/loop_wrap = true
tracks/1/imported = false
tracks/1/enabled = true
tracks/1/keys = {
"times": PoolRealArray( 0.9, 3.9, 5 ),
"transitions": PoolRealArray( 1, 1, 1 ),
"update": 0,
"values": [ Vector2( 0.6, 0.6 ), Vector2( 0.7, 0.7 ), Vector2( 0.7, 0.7 ) ]
}

[node name="Splash" type="Node2D"]

script = ExtResource( 1 )

[node name="ColorRect" type="ColorRect" parent="." index="0"]

anchor_left = 0.0
anchor_top = 0.0
anchor_right = 0.0
anchor_bottom = 0.0
margin_right = 750.0
margin_bottom = 1334.0
rect_pivot_offset = Vector2( 0, 0 )
rect_clip_content = false
mouse_filter = 0
mouse_default_cursor_shape = 0
size_flags_horizontal = 1
size_flags_vertical = 1
color = Color( 0, 0, 0, 1 )
_sections_unfolded = [ "Margin", "Mouse", "Rect" ]

[node name="logo" type="Sprite" parent="." index="1"]

modulate = Color( 0, 0, 0, 1 )
position = Vector2( 375, 650 )
scale = Vector2( 0.7, 0.7 )
texture = ExtResource( 2 )
_sections_unfolded = [ "Transform", "Visibility" ]

[node name="AnimationPlayer" type="AnimationPlayer" parent="logo" index="0"]

root_node = NodePath("..")
autoplay = ""
playback_process_mode = 1
playback_default_blend_time = 0.0
playback_speed = 1.0
anims/animate_in_logo = SubResource( 1 )
blend_times = [  ]


