[gd_resource type="AtlasTexture" load_steps=2 format=2]

[sub_resource type="StreamTexture" id=1]

flags = 7
load_path = "res://.import/overworld_map.png-720621e69e05939e4a6222797b17c816.stex"

[resource]

flags = 7
atlas = SubResource( 1 )
region = Rect2( 1, 131, 128, 128 )
margin = Rect2( 0, 0, 0, 0 )
filter_clip = false

