[gd_resource type="AtlasTexture" load_steps=2 format=2]

[sub_resource type="StreamTexture" id=1]

flags = 7
load_path = "res://.import/units.png-42c408c212f392205fc2a8ebca0c2eb6.stex"

[resource]

flags = 7
atlas = SubResource( 1 )
region = Rect2( 365, 103, 32, 32 )
margin = Rect2( 0, 0, 0, 0 )
filter_clip = false

